{
  "values": [
    {
      "stringValue": "1-PrimitiveTypes-Why Programming/Why Java"
    },
    {
      "stringValue": "1-PrimitiveTypes-Variables and Data Types"
    },
    {
      "stringValue": "1-PrimitiveTypes-Expression and Assignment Statements"
    },
    {
      "stringValue": "1-PrimitiveTypes-Compound Assignment Operators"
    },
    {
      "stringValue": "1-PrimitiveTypes-Casting and Ranges of Variables"
    },
    {
      "stringValue": "2-Using Objects-Objects:instances of classes"
    },
    {
      "stringValue": "2-Using Objects-Creating and storing objects(instantiation)"
    },
    {
      "stringValue": "2-Using Objects-Calling a void method"
    },
    {
      "stringValue": "2-Using Objects-Calling a void method with parameters"
    },
    {
      "stringValue": "2-Using Objects-Calling a non void method"
    },
    {
      "stringValue": "2-Using Objects-String objects-concatenation-literals and more"
    },
    {
      "stringValue": "2-Using Objects-String methods"
    },
    {
      "stringValue": "2-Using Objects-Wrapper classes Integer and Double"
    },
    {
      "stringValue": "2-Using Objects-Using the Math class"
    },
    {
      "stringValue": "3-Conditionals-Boolean expressions"
    },
    {
      "stringValue": "3-Conditionals-If statements"
    },
    {
      "stringValue": "3-Conditionals-if-else"
    },
    {
      "stringValue": "3-Conditionals-else if"
    },
    {
      "stringValue": "3-Conditionals-Compound boolean expression"
    },
    {
      "stringValue": "3-Conditionals-Equivalent boolean expression"
    },
    {
      "stringValue": "3-Conditionals-Comparing objects"
    },
    {
      "stringValue": "4-Iteration-While loops"
    },
    {
      "stringValue": "4-Iteration-For loops"
    },
    {
      "stringValue": "4-Iteration-Developing algorithms using strings"
    },
    {
      "stringValue": "4-Iteration-Nested iteration"
    },
    {
      "stringValue": "4-Iteration-Informal code analysis"
    },
    {
      "stringValue": "5-Writing Classes-Anatomy of a class"
    },
    {
      "stringValue": "5-Writing Classes-Constructors"
    },
    {
      "stringValue": "5-Writing Classes-Comments"
    },
    {
      "stringValue": "5-Writing Classes-Accessor methods"
    },
    {
      "stringValue": "5-Writing Classes-Mutator methods"
    },
    {
      "stringValue": "5-Writing Classes-Writing methods"
    },
    {
      "stringValue": "5-Writing Classes-Static variables and methods"
    },
    {
      "stringValue": "5-Writing Classes-Scope and Access"
    },
    {
      "stringValue": "5-Writing Classes-this keyword"
    },
    {
      "stringValue": "5-Writing Classes-Ethical and social"
    },
    {
      "stringValue": "6-Array-Array creation and access"
    },
    {
      "stringValue": "6-Array-Traversing arrays"
    },
    {
      "stringValue": "6-Array-Enhanced for loop"
    },
    {
      "stringValue": "6-Array-Developing algorithms using arrays"
    },
    {
      "stringValue": "7-ArrayList-Intro to ArrayList"
    },
    {
      "stringValue": "7-ArrayList-ArrayList methods"
    },
    {
      "stringValue": "7-ArrayList-Traversing ArrayLists"
    },
    {
      "stringValue": "7-ArrayList-Developing Algorithms using arraylists"
    },
    {
      "stringValue": "7-ArrayList-Searching"
    },
    {
      "stringValue": "7-ArrayList-Sorting"
    },
    {
      "stringValue": "7-ArrayList-Ethical issues in data collection"
    },
    {
      "stringValue": "8-2DArray-2DArrays"
    },
    {
      "stringValue": "8-2DArray-Traversing 2D arrays"
    },
    {
      "stringValue": "9-Inheritance-Creating superclass-subclass"
    },
    {
      "stringValue": "9-Inheritance-Writing constructors for subclasses"
    },
    {
      "stringValue": "9-Inheritance-Overriding methods"
    },
    {
      "stringValue": "9-Inheritance-super keyword"
    },
    {
      "stringValue": "9-Inheritance-Creating reference using Inheritance Hierarchies"
    },
    {
      "stringValue": "9-Inheritance-Polymorphism"
    },
    {
      "stringValue": "9-Inheritance-Object superclass"
    },
    {
      "stringValue": "10-Recursion-Recursion"
    },
    {
      "stringValue": "10-Recursion-Recursion searching and sorting"
    }
  ]
}